{
  "projectType": "application",
  "root": "apps/training",
  "sourceRoot": "apps/training/src",
  "prefix": "ey",
  "targets": {
    "build": {
      "executor": "@angular-devkit/build-angular:browser",
      "outputs": ["{options.outputPath}"],
      "options": {
        "outputPath": "dist/apps/training",
        "index": "apps/training/src/index.html",
        "main": "apps/training/src/main.ts",
        "polyfills": "apps/training/src/polyfills.ts",
        "tsConfig": "apps/training/tsconfig.app.json",
        "inlineStyleLanguage": "scss",
        "assets": ["apps/training/src/favicon.ico", "apps/training/src/assets"],
        "styles": [
          "node_modules/@angular/material/prebuilt-themes/indigo-pink.css",
          "apps/training/src/styles.scss"
        ],
        "scripts": []
      },
      "configurations": {
        "production": {
          "budgets": [
            {
              "type": "initial",
              "maximumWarning": "500kb",
              "maximumError": "1mb"
            },
            {
              "type": "anyComponentStyle",
              "maximumWarning": "2kb",
              "maximumError": "4kb"
            }
          ],
          "fileReplacements": [
            {
              "replace": "apps/training/src/environments/environment.ts",
              "with": "apps/training/src/environments/environment.prod.ts"
            }
          ],
          "outputHashing": "all"
        },
        "development": {
          "buildOptimizer": false,
          "optimization": false,
          "vendorChunk": true,
          "extractLicenses": false,
          "sourceMap": true,
          "namedChunks": true
        }
      },
      "defaultConfiguration": "production"
    },
    "serve": {
      "executor": "@angular-devkit/build-angular:dev-server",
      "configurations": {
        "production": {
          "browserTarget": "training:build:production"
        },
        "development": {
          "browserTarget": "training:build:development"
        }
      },
      "defaultConfiguration": "development"
    },
    "extract-i18n": {
      "executor": "@angular-devkit/build-angular:extract-i18n",
      "options": {
        "browserTarget": "training:build"
      }
    },
    "lint": {
      "executor": "@nrwl/linter:eslint",
      "options": {
        "lintFilePatterns": [
          "apps/training/src/**/*.ts",
          "apps/training/src/**/*.html"
        ]
      }
    },
    "test": {
      "executor": "@nrwl/jest:jest",
      "outputs": ["coverage/apps/training"],
      "options": {
        "jestConfig": "apps/training/jest.config.js",
        "passWithNoTests": true
      }
    },
    "storybook": {
      "executor": "@nrwl/storybook:storybook",
      "options": {
        "uiFramework": "@storybook/angular",
        "port": 4400,
        "config": {
          "configFolder": "apps/training/.storybook"
        },
        "projectBuildConfig": "training",
        "styles": [ 
        ]
      },
      "configurations": {
        "ci": {
          "quiet": true
        }
      }
    },
    "build-storybook": {
      "executor": "@nrwl/storybook:build",
      "outputs": ["{options.outputPath}"],
      "options": {
        "uiFramework": "@storybook/angular",
        "outputPath": "dist/storybook/training",
        "config": {
          "configFolder": "apps/training/.storybook"
        },
        "projectBuildConfig": "training"
      },
      "configurations": {
        "ci": {
          "quiet": true
        }
      }
    }
  },
  "tags": []
}
